simulation/qsim/TP2_E5.msim.vcd
$comment
	File created using the following command:
		vcd file TP2_E5.msim.vcd -direction
$end
$date
	Sat May 23 18:24:27 2020
$end
$version
	ModelSim Version 10.5b
$end
$timescale
	1ps
$end

$scope module TP2_E5_vlg_vec_tst $end
$var reg 1 ! clk $end
$var reg 11 " in [10:0] $end
$var reg 1 # preload $end
$var reg 1 $ res $end
$var wire 1 % out [10] $end
$var wire 1 & out [9] $end
$var wire 1 ' out [8] $end
$var wire 1 ( out [7] $end
$var wire 1 ) out [6] $end
$var wire 1 * out [5] $end
$var wire 1 + out [4] $end
$var wire 1 , out [3] $end
$var wire 1 - out [2] $end
$var wire 1 . out [1] $end
$var wire 1 / out [0] $end

$scope module i1 $end
$var wire 1 0 gnd $end
$var wire 1 1 vcc $end
$var wire 1 2 unknown $end
$var tri1 1 3 devclrn $end
$var tri1 1 4 devpor $end
$var tri1 1 5 devoe $end
$var wire 1 6 out[10]~output_o $end
$var wire 1 7 out[9]~output_o $end
$var wire 1 8 out[8]~output_o $end
$var wire 1 9 out[7]~output_o $end
$var wire 1 : out[6]~output_o $end
$var wire 1 ; out[5]~output_o $end
$var wire 1 < out[4]~output_o $end
$var wire 1 = out[3]~output_o $end
$var wire 1 > out[2]~output_o $end
$var wire 1 ? out[1]~output_o $end
$var wire 1 @ out[0]~output_o $end
$var wire 1 A clk~input_o $end
$var wire 1 B in[10]~input_o $end
$var wire 1 C res~input_o $end
$var wire 1 D in[9]~input_o $end
$var wire 1 E in[8]~input_o $end
$var wire 1 F in[7]~input_o $end
$var wire 1 G in[6]~input_o $end
$var wire 1 H in[5]~input_o $end
$var wire 1 I in[4]~input_o $end
$var wire 1 J in[3]~input_o $end
$var wire 1 K in[2]~input_o $end
$var wire 1 L in[1]~input_o $end
$var wire 1 M in[0]~input_o $end
$var wire 1 N inst|Add0~0_combout $end
$var wire 1 O preload~input_o $end
$var wire 1 P inst|out~10_combout $end
$var wire 1 Q inst|Add0~1 $end
$var wire 1 R inst|Add0~2_combout $end
$var wire 1 S inst|out~9_combout $end
$var wire 1 T inst|Add0~3 $end
$var wire 1 U inst|Add0~4_combout $end
$var wire 1 V inst|out~8_combout $end
$var wire 1 W inst|Add0~5 $end
$var wire 1 X inst|Add0~6_combout $end
$var wire 1 Y inst|out~7_combout $end
$var wire 1 Z inst|Add0~7 $end
$var wire 1 [ inst|Add0~8_combout $end
$var wire 1 \ inst|out~6_combout $end
$var wire 1 ] inst|Add0~9 $end
$var wire 1 ^ inst|Add0~10_combout $end
$var wire 1 _ inst|out~5_combout $end
$var wire 1 ` inst|Add0~11 $end
$var wire 1 a inst|Add0~12_combout $end
$var wire 1 b inst|out~4_combout $end
$var wire 1 c inst|Add0~13 $end
$var wire 1 d inst|Add0~14_combout $end
$var wire 1 e inst|out~3_combout $end
$var wire 1 f inst|Add0~15 $end
$var wire 1 g inst|Add0~16_combout $end
$var wire 1 h inst|out~2_combout $end
$var wire 1 i inst|Add0~17 $end
$var wire 1 j inst|Add0~18_combout $end
$var wire 1 k inst|out~1_combout $end
$var wire 1 l inst|Add0~19 $end
$var wire 1 m inst|Add0~20_combout $end
$var wire 1 n inst|out~0_combout $end
$var wire 1 o inst|out [10] $end
$var wire 1 p inst|out [9] $end
$var wire 1 q inst|out [8] $end
$var wire 1 r inst|out [7] $end
$var wire 1 s inst|out [6] $end
$var wire 1 t inst|out [5] $end
$var wire 1 u inst|out [4] $end
$var wire 1 v inst|out [3] $end
$var wire 1 w inst|out [2] $end
$var wire 1 x inst|out [1] $end
$var wire 1 y inst|out [0] $end
$upscope $end
$upscope $end
$enddefinitions $end
#0
$dumpvars
0!
b11100000000 "
0#
1$
0/
0.
0-
0,
0+
0*
0)
0(
0'
0&
0%
00
11
x2
13
14
15
06
07
08
09
0:
0;
0<
0=
0>
0?
0@
0A
1B
1C
1D
1E
0F
0G
0H
0I
0J
0K
0L
0M
1N
0O
1P
0Q
0R
0S
1T
0U
0V
0W
0X
0Y
1Z
0[
0\
0]
0^
0_
1`
0a
0b
0c
0d
0e
1f
0g
0h
0i
0j
0k
1l
0m
0n
0y
0x
0w
0v
0u
0t
0s
0r
0q
0p
0o
$end
#25000
1!
1A
1y
1@
1Q
0N
1/
1R
0P
1S
#50000
0!
0A
#75000
1!
1A
1x
0y
0@
1?
0T
0R
0Q
1N
1.
0/
1U
1T
1R
0S
1P
0U
1V
1S
0V
#100000
0!
0A
#125000
1!
1A
1y
1@
1Q
0N
1/
0T
0R
0P
1U
0S
1V
#150000
0!
0A
#175000
1!
1A
1w
0x
0y
0@
0?
1>
1W
0U
1T
1R
0Q
1N
1-
0.
0/
1X
0W
1U
0R
0V
1S
1P
0X
1Y
1V
0S
0Y
#200000
0!
0A
#225000
1!
1A
1y
1@
1Q
0N
1/
1R
0P
1S
#250000
0!
0A
#275000
1!
1A
1x
0y
0@
1?
0T
0R
0Q
1N
1.
0/
1W
0U
1T
1R
0S
1P
1X
0W
1U
0V
1S
0X
1Y
1V
0Y
#300000
1#
0!
1O
0A
1n
1k
1h
0V
0S
0P
#325000
1!
1A
1o
1p
1q
0w
0x
0?
0>
18
17
16
1m
1j
1g
0U
0R
1%
1&
1'
0-
0.
#350000
0!
0A
#375000
1!
1A
#400000
0!
0A
#425000
1!
1A
#450000
0!
0A
#475000
1!
1A
#500000
0!
0A
#525000
1!
1A
#550000
0!
0A
#575000
1!
1A
#600000
0!
0A
#625000
1!
1A
#650000
0!
0A
#675000
1!
1A
#700000
0!
0A
#725000
1!
1A
#750000
0!
0A
#775000
1!
1A
#800000
0!
0A
#810000
0#
0O
1P
#825000
1!
1A
1y
1@
1Q
0N
1/
1R
0P
1S
#850000
0!
0A
#875000
1!
1A
1x
0y
0@
1?
0T
0R
0Q
1N
1.
0/
1U
1T
1R
0S
1P
0U
1V
1S
0V
#900000
0!
0A
#925000
1!
1A
1y
1@
1Q
0N
1/
0T
0R
0P
1U
0S
1V
#950000
0!
0A
#975000
1!
1A
1w
0x
0y
0@
0?
1>
1W
0U
1T
1R
0Q
1N
1-
0.
0/
1X
0W
1U
0R
0V
1S
1P
0X
1Y
1V
0S
0Y
